{

    "status": 200,
    "data": {
        "entitys": [
            {
                "id": 0,
                "del": "n",
                "code": "0000",
                "name": "物品0",
                "size": "50ml",
                "sale_price": null,
                "face_price": "0",
                "is_discount": "否",
                "status": "审核通过"
            },
            {
                "id": 1,
                "del": "n",
                "code": "0001",
                "name": "物品1",
                "size": "50ml",
                "sale_price": null,
                "face_price": "1",
                "is_discount": "否",
                "status": "审核通过"
            },
            {
                "id": 2,
                "del": "n",
                "code": "0002",
                "name": "物品2",
                "size": "50ml",
                "sale_price": null,
                "face_price": "2",
                "is_discount": "否",
                "status": "审核通过"
            },
            {
                "id": 3,
                "del": "n",
                "code": "0003",
                "name": "物品3",
                "size": "50ml",
                "sale_price": null,
                "face_price": "3",
                "is_discount": "否",
                "status": "审核通过"
            },
            {
                "id": 4,
                "del": "n",
                "code": "0004",
                "name": "物品4",
                "size": "50ml",
                "sale_price": null,
                "face_price": "4",
                "is_discount": "否",
                "status": "审核通过"
            },
            {
                "id": 5,
                "del": "n",
                "code": "0005",
                "name": "物品5",
                "size": "50ml",
                "sale_price": null,
                "face_price": "5",
                "is_discount": "否",
                "status": "审核通过"
            },
            {
                "id": 6,
                "del": "n",
                "code": "0006",
                "name": "物品6",
                "size": "50ml",
                "sale_price": null,
                "face_price": "6",
                "is_discount": "否",
                "status": "审核通过"
            },
            {
                "id": 7,
                "del": "n",
                "code": "0007",
                "name": "物品7",
                "size": "50ml",
                "sale_price": null,
                "face_price": "7",
                "is_discount": "否",
                "status": "审核通过"
            },
            {
                "id": 8,
                "del": "n",
                "code": "0008",
                "name": "物品8",
                "size": "50ml",
                "sale_price": null,
                "face_price": "8",
                "is_discount": "否",
                "status": "审核通过"
            },
            {
                "id": 9,
                "del": "n",
                "code": "0009",
                "name": "物品9",
                "size": "50ml",
                "sale_price": null,
                "face_price": "9",
                "is_discount": "否",
                "status": "审核通过"
            },
            {
                "id": 10,
                "del": "n",
                "code": "00010",
                "name": "物品10",
                "size": "50ml",
                "sale_price": null,
                "face_price": "10",
                "is_discount": "否",
                "status": "审核通过"
            },
            {
                "id": 11,
                "del": "n",
                "code": "00011",
                "name": "物品11",
                "size": "50ml",
                "sale_price": null,
                "face_price": "11",
                "is_discount": "否",
                "status": "审核通过"
            },
            {
                "id": 12,
                "del": "n",
                "code": "00012",
                "name": "物品12",
                "size": "50ml",
                "sale_price": null,
                "face_price": "12",
                "is_discount": "否",
                "status": "审核通过"
            },
            {
                "id": 13,
                "del": "n",
                "code": "00013",
                "name": "物品13",
                "size": "50ml",
                "sale_price": null,
                "face_price": "13",
                "is_discount": "否",
                "status": "审核通过"
            },
            {
                "id": 14,
                "del": "n",
                "code": "00014",
                "name": "物品14",
                "size": "50ml",
                "sale_price": null,
                "face_price": "14",
                "is_discount": "否",
                "status": "审核通过"
            },
            {
                "id": 15,
                "del": "n",
                "code": "00015",
                "name": "物品15",
                "size": "50ml",
                "sale_price": null,
                "face_price": "15",
                "is_discount": "否",
                "status": "审核通过"
            },
            {
                "id": 16,
                "del": "n",
                "code": "00016",
                "name": "物品16",
                "size": "50ml",
                "sale_price": null,
                "face_price": "16",
                "is_discount": "否",
                "status": "审核通过"
            },
            {
                "id": 17,
                "del": "n",
                "code": "00017",
                "name": "物品17",
                "size": "50ml",
                "sale_price": null,
                "face_price": "17",
                "is_discount": "否",
                "status": "审核通过"
            },
            {
                "id": 18,
                "del": "n",
                "code": "00018",
                "name": "物品18",
                "size": "50ml",
                "sale_price": null,
                "face_price": "18",
                "is_discount": "否",
                "status": "审核通过"
            },
            {
                "id": 19,
                "del": "n",
                "code": "00019",
                "name": "物品19",
                "size": "50ml",
                "sale_price": null,
                "face_price": "19",
                "is_discount": "否",
                "status": "审核通过"
            },
            {
                "id": 20,
                "del": "n",
                "code": "00020",
                "name": "物品20",
                "size": "50ml",
                "sale_price": null,
                "face_price": "20",
                "is_discount": "否",
                "status": "审核通过"
            },
            {
                "id": 21,
                "del": "n",
                "code": "00021",
                "name": "物品21",
                "size": "50ml",
                "sale_price": null,
                "face_price": "21",
                "is_discount": "否",
                "status": "审核通过"
            },
            {
                "id": 22,
                "del": "n",
                "code": "00022",
                "name": "物品22",
                "size": "50ml",
                "sale_price": null,
                "face_price": "22",
                "is_discount": "否",
                "status": "审核通过"
            },
            {
                "id": 23,
                "del": "n",
                "code": "00023",
                "name": "物品23",
                "size": "50ml",
                "sale_price": null,
                "face_price": "23",
                "is_discount": "否",
                "status": "审核通过"
            },
            {
                "id": 24,
                "del": "n",
                "code": "00024",
                "name": "物品24",
                "size": "50ml",
                "sale_price": null,
                "face_price": "24",
                "is_discount": "否",
                "status": "审核通过"
            },
            {
                "id": 25,
                "del": "n",
                "code": "00025",
                "name": "物品25",
                "size": "50ml",
                "sale_price": null,
                "face_price": "25",
                "is_discount": "否",
                "status": "审核通过"
            },
            {
                "id": 26,
                "del": "n",
                "code": "00026",
                "name": "物品26",
                "size": "50ml",
                "sale_price": null,
                "face_price": "26",
                "is_discount": "否",
                "status": "审核通过"
            },
            {
                "id": 27,
                "del": "n",
                "code": "00027",
                "name": "物品27",
                "size": "50ml",
                "sale_price": null,
                "face_price": "27",
                "is_discount": "否",
                "status": "审核通过"
            },
            {
                "id": 28,
                "del": "n",
                "code": "00028",
                "name": "物品28",
                "size": "50ml",
                "sale_price": null,
                "face_price": "28",
                "is_discount": "否",
                "status": "审核通过"
            },
            {
                "id": 29,
                "del": "n",
                "code": "00029",
                "name": "物品29",
                "size": "50ml",
                "sale_price": null,
                "face_price": "29",
                "is_discount": "否",
                "status": "审核通过"
            }
        ],
        "pageSize": 30,
        "totalCount": 470,
        "currentPage": 1,
        "totalPage": 16
    },
    "msg": "操作成功"

}