{

    "status": 200,
    "data": {
        "entitys": [
            {
                "id": 0,
                "del": "n",
                "code": "00000",
                "name": "部门0",
                "area_name": "杭州",
                "is_gate": "否",
                "createTime": 1493789741519
            },
            {
                "id": 1,
                "del": "n",
                "code": "00001",
                "name": "部门1",
                "area_name": "杭州",
                "is_gate": "否",
                "createTime": 1493789741519
            },
            {
                "id": 2,
                "del": "n",
                "code": "00002",
                "name": "部门2",
                "area_name": "杭州",
                "is_gate": "否",
                "createTime": 1493789741519
            },
            {
                "id": 3,
                "del": "n",
                "code": "00003",
                "name": "部门3",
                "area_name": "杭州",
                "is_gate": "否",
                "createTime": 1493789741519
            },
            {
                "id": 4,
                "del": "n",
                "code": "00004",
                "name": "部门4",
                "area_name": "杭州",
                "is_gate": "否",
                "createTime": 1493789741519
            },
            {
                "id": 5,
                "del": "n",
                "code": "00005",
                "name": "部门5",
                "area_name": "杭州",
                "is_gate": "否",
                "createTime": 1493789741519
            },
            {
                "id": 6,
                "del": "n",
                "code": "00006",
                "name": "部门6",
                "area_name": "杭州",
                "is_gate": "否",
                "createTime": 1493789741519
            },
            {
                "id": 7,
                "del": "n",
                "code": "00007",
                "name": "部门7",
                "area_name": "杭州",
                "is_gate": "否",
                "createTime": 1493789741519
            },
            {
                "id": 8,
                "del": "n",
                "code": "00008",
                "name": "部门8",
                "area_name": "杭州",
                "is_gate": "否",
                "createTime": 1493789741519
            },
            {
                "id": 9,
                "del": "n",
                "code": "00009",
                "name": "部门9",
                "area_name": "杭州",
                "is_gate": "否",
                "createTime": 1493789741519
            },
            {
                "id": 10,
                "del": "n",
                "code": "000010",
                "name": "部门10",
                "area_name": "杭州",
                "is_gate": "否",
                "createTime": 1493789741519
            },
            {
                "id": 11,
                "del": "n",
                "code": "000011",
                "name": "部门11",
                "area_name": "杭州",
                "is_gate": "否",
                "createTime": 1493789741519
            },
            {
                "id": 12,
                "del": "n",
                "code": "000012",
                "name": "部门12",
                "area_name": "杭州",
                "is_gate": "否",
                "createTime": 1493789741519
            },
            {
                "id": 13,
                "del": "n",
                "code": "000013",
                "name": "部门13",
                "area_name": "杭州",
                "is_gate": "否",
                "createTime": 1493789741519
            },
            {
                "id": 14,
                "del": "n",
                "code": "000014",
                "name": "部门14",
                "area_name": "杭州",
                "is_gate": "否",
                "createTime": 1493789741519
            },
            {
                "id": 15,
                "del": "n",
                "code": "000015",
                "name": "部门15",
                "area_name": "杭州",
                "is_gate": "否",
                "createTime": 1493789741519
            },
            {
                "id": 16,
                "del": "n",
                "code": "000016",
                "name": "部门16",
                "area_name": "杭州",
                "is_gate": "否",
                "createTime": 1493789741519
            },
            {
                "id": 17,
                "del": "n",
                "code": "000017",
                "name": "部门17",
                "area_name": "杭州",
                "is_gate": "否",
                "createTime": 1493789741519
            },
            {
                "id": 18,
                "del": "n",
                "code": "000018",
                "name": "部门18",
                "area_name": "杭州",
                "is_gate": "否",
                "createTime": 1493789741519
            },
            {
                "id": 19,
                "del": "n",
                "code": "000019",
                "name": "部门19",
                "area_name": "杭州",
                "is_gate": "否",
                "createTime": 1493789741519
            },
            {
                "id": 20,
                "del": "n",
                "code": "000020",
                "name": "部门20",
                "area_name": "杭州",
                "is_gate": "否",
                "createTime": 1493789741519
            },
            {
                "id": 21,
                "del": "n",
                "code": "000021",
                "name": "部门21",
                "area_name": "杭州",
                "is_gate": "否",
                "createTime": 1493789741519
            },
            {
                "id": 22,
                "del": "n",
                "code": "000022",
                "name": "部门22",
                "area_name": "杭州",
                "is_gate": "否",
                "createTime": 1493789741519
            },
            {
                "id": 23,
                "del": "n",
                "code": "000023",
                "name": "部门23",
                "area_name": "杭州",
                "is_gate": "否",
                "createTime": 1493789741519
            },
            {
                "id": 24,
                "del": "n",
                "code": "000024",
                "name": "部门24",
                "area_name": "杭州",
                "is_gate": "否",
                "createTime": 1493789741519
            },
            {
                "id": 25,
                "del": "n",
                "code": "000025",
                "name": "部门25",
                "area_name": "杭州",
                "is_gate": "否",
                "createTime": 1493789741519
            },
            {
                "id": 26,
                "del": "n",
                "code": "000026",
                "name": "部门26",
                "area_name": "杭州",
                "is_gate": "否",
                "createTime": 1493789741519
            },
            {
                "id": 27,
                "del": "n",
                "code": "000027",
                "name": "部门27",
                "area_name": "杭州",
                "is_gate": "否",
                "createTime": 1493789741519
            },
            {
                "id": 28,
                "del": "n",
                "code": "000028",
                "name": "部门28",
                "area_name": "杭州",
                "is_gate": "否",
                "createTime": 1493789741519
            },
            {
                "id": 29,
                "del": "n",
                "code": "000029",
                "name": "部门29",
                "area_name": "杭州",
                "is_gate": "否",
                "createTime": 1493789741519
            }
        ],
        "pageSize": 30,
        "totalCount": 470,
        "currentPage": 1,
        "totalPage": 16
    },
    "msg": "操作成功"

}